[
    {
        "Type": "Component",
        "Diameter (mm)": 66,
        "Cone Surface Area (cm^2)": "N/A", 
        "Manufacturer": "TangBand",
        "Series": "AT Series",
        "Model": "25-1414SC",
        "Impedance (Ohm)": 4,
        "Sensitivity (dB at 1W/1M)": 90,
        "Resonance Frequency Fs (Hz)": 800,
        "Frequency response": {
            "Manufacturer": {
                "Frequency Response (Lower Bound)": 800,
                "Frequency Response (Upper Bound)": 20000
            },
            "Even": {
                "Frequency Response (Lower Bound)": 900,
                "Frequency Response (Upper Bound)": 20000            
            }
        },
        "Power Handling RMS (W)": 8,
        "OVP (€)": 33
    },
    {
        "Type": "Component",
        "Diameter (mm)": 104,
        "Cone Surface Area (cm^2)": 7.07, 
        "Manufacturer": "Peerless",
        "Series": "H",
        "Model": "H26TG45-06",
        "Impedance (Ohm)": 8,
        "Sensitivity (dB at 1W/1M)": 97.2,
        "Resonance Frequency Fs (Hz)": 990,
        "Frequency response": {
            "Manufacturer": {
                "Frequency Response (Lower Bound)": 2000,
                "Frequency Response (Upper Bound)": 20000
            },
            "Even (+/-3dB)": {
                "Frequency Response (Lower Bound)": 2100,
                "Frequency Response (Upper Bound)": 17000            
            }
        },
        "Power Handling RMS (W)": 100,
        "OVP (€)": 34
    },
    {
        "Type": "Component",
        "Diameter (mm)": 110,
        "Cone Surface Area (cm^2)": "N/A", 
        "Manufacturer": "TangBand",
        "Series": "TW Series",
        "Model": "25-1983",
        "Impedance (Ohm)": 8,
        "Sensitivity (dB at 1W/1M)": 90,
        "Resonance Frequency Fs (Hz)": 500,
        "Frequency response": {
            "Manufacturer": {
                "Frequency Response (Lower Bound)": 500,
                "Frequency Response (Upper Bound)": 20000
            },
            "Even": {
                "Frequency Response (Lower Bound)": 2100,
                "Frequency Response (Upper Bound)": 20000            
            }
        },
        "Power Handling RMS (W)": 8,
        "OVP (€)": "N/A"
    },
    {
        "Type": "Component",
        "Diameter (mm)": 116,
        "Cone Surface Area (cm^2)": 55, 
        "Manufacturer": "Monacor",
        "Series": "MSH",
        "Model": "MSH-115HQ",
        "Impedance (Ohm)": 8,
        "Sensitivity (dB at 1W/1M)": 87,
        "Resonance Frequency Fs (Hz)": 89,
        "Frequency response": {
            "Manufacturer": {
                "Frequency Response (Lower Bound)": 89,
                "Frequency Response (Upper Bound)": 8000
            },
            "Even": {
                "Frequency Response (Lower Bound)": 100,
                "Frequency Response (Upper Bound)": 6000            
            }
        },
        "Power Handling RMS (W)": 50,
        "OVP (€)": 87
    },
    {
        "Type": "Component",
        "Diameter (mm)": 116,
        "Cone Surface Area (cm^2)": 55, 
        "Manufacturer": "Monacor",
        "Series": "MSH",
        "Model": "MSH-115HQ4",
        "Impedance (Ohm)": 4,
        "Sensitivity (dB at 1W/1M)": 88,
        "Resonance Frequency Fs (Hz)": 95,
        "Frequency response": {
            "Manufacturer": {
                "Frequency Response (Lower Bound)": 95,
                "Frequency Response (Upper Bound)": 8000
            },
            "Even": {
                "Frequency Response (Lower Bound)": 140,
                "Frequency Response (Upper Bound)": 6000            
            }
        },
        "Power Handling RMS (W)": 50,
        "OVP (€)": 65
    },
    {
        "Type": "Component",
        "Diameter (mm)": 132,
        "Cone Surface Area (cm^2)": 70, 
        "Manufacturer": "SB Acoustics",
        "Series": "Satori",
        "Model": "SATORI MR13P-4",
        "Impedance (Ohm)": 4,
        "Sensitivity (dB at 1W/1M)": 88,
        "Resonance Frequency Fs (Hz)": 41,
        "Frequency response": {
            "Manufacturer": {
                "Frequency Response (Lower Bound)": 200,
                "Frequency Response (Upper Bound)": "N/A"
            },
            "Even": {
                "Frequency Response (Lower Bound)": 250,
                "Frequency Response (Upper Bound)": 1500            
            }
        },
        "Power Handling RMS (W)": 30,
        "OVP (€)": 192
    },
    {
        "Type": "Component",
        "Diameter (mm)": 132,
        "Cone Surface Area (cm^2)": 70, 
        "Manufacturer": "SB Acoustics",
        "Series": "Satori",
        "Model": "SATORI MR13PNW-4",
        "Impedance (Ohm)": 4,
        "Sensitivity (dB at 1W/1M)": 88,
        "Resonance Frequency Fs (Hz)": 41,
        "Frequency response": {
            "Manufacturer": {
                "Frequency Response (Lower Bound)": 200,
                "Frequency Response (Upper Bound)": "N/A"
            },
            "Even": {
                "Frequency Response (Lower Bound)": 250,
                "Frequency Response (Upper Bound)": 1500            
            }
        },
        "Power Handling RMS (W)": 30,
        "OVP (€)": 192
    },
    {
        "Type": "Component",
        "Diameter (mm)": 132,
        "Cone Surface Area (cm^2)": 70, 
        "Manufacturer": "SB Acoustics",
        "Series": "Satori",
        "Model": "SATORI MR13PNW-8",
        "Impedance (Ohm)": 8,
        "Sensitivity (dB at 1W/1M)": 88,
        "Resonance Frequency Fs (Hz)": 47,
        "Frequency response": {
            "Manufacturer": {
                "Frequency Response (Lower Bound)": 200,
                "Frequency Response (Upper Bound)": "N/A"
            },
            "Even": {
                "Frequency Response (Lower Bound)": 250,
                "Frequency Response (Upper Bound)": 1500            
            }
        },
        "Power Handling RMS (W)": 30,
        "OVP (€)": 192
    },
    {
        "Type": "Component",
        "Diameter (mm)": 132,
        "Cone Surface Area (cm^2)": 70, 
        "Manufacturer": "SB Acoustics",
        "Series": "Satori",
        "Model": "SATORI MW13TX-8",
        "Impedance (Ohm)": 8,
        "Sensitivity (dB at 1W/1M)": 87,
        "Resonance Frequency Fs (Hz)": 40,
        "Frequency response": {
            "Manufacturer": {
                "Frequency Response (Lower Bound)": "N/A",
                "Frequency Response (Upper Bound)": "N/A"
            },
            "Even": {
                "Frequency Response (Lower Bound)": 200,
                "Frequency Response (Upper Bound)": 1500            
            }
        },
        "Power Handling RMS (W)": 40,
        "OVP (€)": 296
    },
    {
        "Type": "Component",
        "Diameter (mm)": 134,
        "Cone Surface Area (cm^2)": 88.3, 
        "Manufacturer": "Peerless",
        "Series": "HDS",
        "Model": "HDS-P830933",
        "Impedance (Ohm)": 8,
        "Sensitivity (dB at 1W/1M)": 87.8,
        "Resonance Frequency Fs (Hz)": 65,
        "Frequency response": {
            "Manufacturer": {
                "Frequency Response (Lower Bound)": 100,
                "Frequency Response (Upper Bound)": 2500
            },
            "Even (+/-3dB)": {
                "Frequency Response (Lower Bound)": 140,
                "Frequency Response (Upper Bound)": 2500            
            }
        },
        "Power Handling RMS (W)": 40,
        "OVP (€)": 36
    },
    {
        "Type": "Component",
        "Nominal Diameter (cm)": 2,
        "Manufacturer": "Wavecor",
        "Series": "TW",
        "Model": "TW022WA09",
        "Impedance (Ohm)": 4,
        "Sensitivity (dB at 1W/1M)": 92,
        "Power Handling RMS (W)": 20,
        "fs": 700,
        "Qts": 0.62,
        "fs/Qts": 1129,
        "Frequency response": {
            "Manufacturer": {
                "Frequency Response (Lower Bound)": 2000,
                "Frequency Response (Upper Bound)": 20000
            },
            "Even": {
                "Frequency Response (Lower Bound)": 2000,
                "Frequency Response (Upper Bound)": 20000
            }
        }
    },
    {
        "Type": "Component",
        "Nominal Diameter (cm)": 2,
        "Manufacturer": "ScanSpeak",
        "Series": "Revelator",
        "Model": "R2104/712000",
        "Impedance (Ohm)": 4,
        "Sensitivity (dB at 1W/1M)": 92,
        "Power Handling RMS (W)": 50,
        "Frequency response": {
            "Manufacturer": {
                "Frequency Response (Lower Bound)": 3500,
                "Frequency Response (Upper Bound)": 30000
            },
            "Even": {
                "Frequency Response (Lower Bound)": 3500,
                "Frequency Response (Upper Bound)": 20000
            }
        }
    },
    {
        "Type": "Component",
        "Nominal Diameter (cm)": 3,
        "Manufacturer": "ScanSpeak",
        "Series": "Discovery",
        "Model": "R2604/833000",
        "Impedance (Ohm)": 4,
        "Sensitivity (dB at 1W/1M)": 92,
        "Frequency response": {
            "Manufacturer": {
                "Frequency Response (Lower Bound)": 2500,
                "Frequency Response (Upper Bound)": 30000
            },
            "Even": {
                "Frequency Response (Lower Bound)": 2500,
                "Frequency Response (Upper Bound)": 20000
            }
        },
        "Power Handling RMS (W)": 100
    },
    {
        "Type": "Component",
        "Nominal Diameter (cm)": 3,
        "Manufacturer": "ScanSpeak",
        "Series": "Revelator",
        "Model": "D2904/710002",
        "Impedance (Ohm)": 4,
        "Sensitivity (dB at 1W/1M)": 95,
        "Frequency response": {
            "Manufacturer": {
                "Frequency Response (Lower Bound)": 2500,
                "Frequency Response (Upper Bound)": 25000
            },
            "Even": {
                "Frequency Response (Lower Bound)": 2500,
                "Frequency Response (Upper Bound)": 20000
            }
        },
        "Power Handling RMS (W)": 90
    },
    {
        "Type": "Component",
        "Nominal Diameter (cm)": 3,
        "Manufacturer": "ScanSpeak",
        "Series": "Revelator",
        "Model": "D2904/710003",
        "Impedance (Ohm)": 4,
        "Sensitivity (dB at 1W/1M)": 95,
        "Frequency response": {
            "Manufacturer": {
                "Frequency Response (Lower Bound)": 2500,
                "Frequency Response (Upper Bound)": 25000
            },
            "Even": {
                "Frequency Response (Lower Bound)": 2500,
                "Frequency Response (Upper Bound)": 20000
            }
        },
        "Power Handling RMS (W)": 90
    },
    {
        "Type": "Component",
        "Nominal Diameter (cm)": 3,
        "Manufacturer": "Dayton Audio",
        "Series": "Reference Series",
        "Model": "RST28F-4",
        "Impedance (Ohm)": 4,
        "Sensitivity (dB at 1W/1M)": 94,
        "Frequency response": {
            "Manufacturer": {
                "Frequency Response (Lower Bound)": 1400,
                "Frequency Response (Upper Bound)": 20000
            },
            "Even": {
                "Frequency Response (Lower Bound)": 5000,
                "Frequency Response (Upper Bound)": 20000            
            }
        },
        "Power Handling RMS (W)": 80
    },
    {
        "Type": "Component",
        "Nominal Diameter (cm)": 5,
        "Manufacturer": "Dayton Audio",
        "Series": "Reference Series",
        "Model": "RS52FN-8",
        "Impedance (Ohm)": 8,
        "Sensitivity (dB at 1W/1M)": 90,
        "Frequency response": {
            "Manufacturer": {
                "Frequency Response (Lower Bound)": 500,
                "Frequency Response (Upper Bound)": 8500
            },
            "Even": {
                "Frequency Response (Lower Bound)": 2000,
                "Frequency Response (Upper Bound)": 7000            
            }
        },
        "Power Handling RMS (W)": 80
    },
    {
        "Type": "Component",
        "Nominal Diameter (cm)": 10,
        "Manufacturer": "ScanSpeak",
        "Series": "Discovery",
        "Model": "15M/4624G00",
        "Impedance (Ohm)": 4,
        "Sensitivity (dB at 1W/1M)": 92,
        "Frequency response": {
            "Manufacturer": {
                "Frequency Response (Lower Bound)": 150,
                "Frequency Response (Upper Bound)": 10000
            },
            "Even": {
                "Frequency Response (Lower Bound)": 200,
                "Frequency Response (Upper Bound)": 3000
            }
        },
        "Power Handling RMS (W)": 75
    },
    {
        "Type": "Component",
        "Nominal Diameter (cm)": 15,
        "Manufacturer": "ScanSpeak",
        "Series": "Discovery",
        "Model": "15W/4424G00",
        "Impedance (Ohm)": 4,
        "Sensitivity (dB at 1W/1M)": 91,
        "Power Handling RMS (W)": 60,
        "fs": 46,
        "Qts": 0.24,
        "fs/Qts": 192,
        "Frequency response": {
            "Manufacturer": {
                "Frequency Response (Lower Bound)": 46,
                "Frequency Response (Upper Bound)": 10000
            },
            "Even": {
                "Frequency Response (Lower Bound)": 200,
                "Frequency Response (Upper Bound)": 2000
            }
        }
    },
    {
        "Type": "Component",
        "Nominal Diameter (cm)": 15,
        "Manufacturer": "Wavecor",
        "Series": "WF",
        "Model": "WF152BD03",
        "Impedance (Ohm)": 4,
        "Sensitivity (dB at 1W/1M)": 91,
        "Frequency response": {
            "Manufacturer": {
                "Frequency Response (Lower Bound)": 56,
                "Frequency Response (Upper Bound)": 3500
            },
            "Even": {
                "Frequency Response (Lower Bound)": 400,
                "Frequency Response (Upper Bound)": 3500
            }
        },
        "Power Handling RMS (W)": 70
    },
    {
        "Type": "Component",
        "Nominal Diameter (cm)": 15,
        "Manufacturer": "Dayton Audio",
        "Series": "Reference Series",
        "Model": "RS150-4",
        "Impedance (Ohm)": 4,
        "Sensitivity (dB at 1W/1M)": 92,
        "Frequency response": {
            "Manufacturer": {
                "Frequency Response (Lower Bound)": 48,
                "Frequency Response (Upper Bound)": 4000
            },
            "Even": {
                "Frequency Response (Lower Bound)": 150,
                "Frequency Response (Upper Bound)": 1000
            }
        },
        "Power Handling RMS (W)": 40
    },
    {
        "Type": "Component",
        "Nominal Diameter (cm)": 16,
        "Manufacturer": "ScanSpeak",
        "Series": "Revelator",
        "Model": "18M/4631T00",
        "Impedance (Ohm)": 4,
        "Sensitivity (dB at 1W/1M)": 92,
        "Frequency response": {
            "Manufacturer": {
                "Frequency Response (Lower Bound)": 70,
                "Frequency Response (Upper Bound)": 6000
            },
            "Even": {
                "Frequency Response (Lower Bound)": 100,
                "Frequency Response (Upper Bound)": 1000
            }
        },
        "Power Handling RMS (W)": 75
    },
    {
        "Type": "Component",
        "Nominal Diameter (cm)": 20,
        "Manufacturer": "Dayton Audio",
        "Series": "Reference Series",
        "Model": "RS225P-4A",
        "Impedance (Ohm)": 4,
        "Sensitivity (dB at 1W/1M)": 93,
        "Frequency response": {
            "Manufacturer": {
                "Frequency Response (Lower Bound)": 35,
                "Frequency Response (Upper Bound)": 5500
            },
            "Even": {
                "Frequency Response (Lower Bound)": 70,
                "Frequency Response (Upper Bound)": 400
            }
        },
        "Power Handling RMS (W)": 80
    },
    {
        "Type": "Component",
        "Nominal Diameter (cm)": 25,
        "Manufacturer": "Dayton Audio",
        "Series": "Reference Series",
        "Model": "RS270P-4A",
        "Impedance (Ohm)": 4,
        "Sensitivity (dB at 1W/1M)": 91,
        "Frequency response": {
            "Manufacturer": {
                "Frequency Response (Lower Bound)": 23,
                "Frequency Response (Upper Bound)": 6000
            },
            "Even": {
                "Frequency Response (Lower Bound)": 90,
                "Frequency Response (Upper Bound)": 400
            }
        },
        "Power Handling RMS (W)": 100
    },
    {
        "Type": "Component",
        "Nominal Diameter (cm)": 30,
        "Manufacturer": "Dayton Audio",
        "Series": "Classic Series",
        "Model": "DC300-8",
        "Impedance (Ohm)": 8,
        "Sensitivity (dB at 1W/1M)": 90,
        "Frequency response": {
            "Manufacturer": {
                "Frequency Response (Lower Bound)": 25,
                "Frequency Response (Upper Bound)": 2500
            },
            "Even": {
                "Frequency Response (Lower Bound)": 40,
                "Frequency Response (Upper Bound)": 200
            }
        },
        "Power Handling RMS (W)": 80
    }
]
